<?xml version="1.0" encoding="UTF-8" standalone="no"?>
<!-- Created with Inkscape (http://www.inkscape.org/) -->
<svg
   xmlns:dc="http://purl.org/dc/elements/1.1/"
   xmlns:cc="http://web.resource.org/cc/"
   xmlns:rdf="http://www.w3.org/1999/02/22-rdf-syntax-ns#"
   xmlns:svg="http://www.w3.org/2000/svg"
   xmlns="http://www.w3.org/2000/svg"
   xmlns:sodipodi="http://sodipodi.sourceforge.net/DTD/sodipodi-0.dtd"
   xmlns:inkscape="http://www.inkscape.org/namespaces/inkscape"
   sodipodi:docname="shapes-f06.svg"
   sodipodi:docbase="/home/aaron/notes/inkdoc/shapes"
   inkscape:version="0.45+devel"
   sodipodi:version="0.32"
   id="svg3844"
   height="1052.3622047"
   width="744.09448819"
   inkscape:output_extension="org.inkscape.output.svg.inkscape">
  <defs
     id="defs3" />
  <sodipodi:namedview
     inkscape:window-y="47"
     inkscape:window-x="81"
     inkscape:window-height="664"
     inkscape:window-width="753"
     inkscape:current-layer="layer1"
     inkscape:document-units="px"
     inkscape:cy="901.11966"
     inkscape:cx="108.8591"
     inkscape:zoom="2.8"
     inkscape:pageshadow="2"
     inkscape:pageopacity="0.0"
     borderopacity="1.0"
     bordercolor="#666666"
     pagecolor="#ffffff"
     id="base" />
  <metadata
     id="metadata4">
    <rdf:RDF>
      <cc:Work
         rdf:about="">
        <dc:format>image/svg+xml</dc:format>
        <dc:type
           rdf:resource="http://purl.org/dc/dcmitype/StillImage" />
      </cc:Work>
    </rdf:RDF>
  </metadata>
  <g
     id="layer1"
     inkscape:groupmode="layer"
     inkscape:label="Layer 1">
    <g
       sodipodi:insensitive="true"
       transform="translate(0.000000,-2169.487)"
       id="g6992">
      <path
         sodipodi:nodetypes="cc"
         id="path6370"
         d="M 200.86009,2297.1368 L 120.12168,2170.3378"
         style="fill:none;fill-opacity:0.75000000;fill-rule:evenodd;stroke:#cfcfcf;stroke-width:1.7028245;stroke-linecap:butt;stroke-linejoin:miter;stroke-miterlimit:4.0000000;stroke-dasharray:1.7028247 1.7028247 ;stroke-dashoffset:0.0000000;stroke-opacity:1.0000000" />
      <path
         id="path6369"
         d="M 148.58356,2287.8598 L 240.43440,2192.3258"
         style="fill:none;fill-opacity:0.75000000;fill-rule:evenodd;stroke:#cfcfcf;stroke-width:1.7028242;stroke-linecap:butt;stroke-linejoin:miter;stroke-miterlimit:4.0000000;stroke-dasharray:1.7028245 1.7028245 ;stroke-dashoffset:0.0000000;stroke-opacity:1.0000000" />
      <path
         id="path6368"
         d="M 79.482780,2277.2299 L 171.33360,2181.6959"
         style="fill:none;fill-opacity:0.75000000;fill-rule:evenodd;stroke:#cfcfcf;stroke-width:1.7028242;stroke-linecap:butt;stroke-linejoin:miter;stroke-miterlimit:4.0000000;stroke-dasharray:1.7028245 1.7028245 ;stroke-dashoffset:0.0000000;stroke-opacity:1.0000000" />
      <path
         id="path6367"
         d="M 54.316258,2219.6747 L 248.12438,2281.8386"
         style="fill:none;fill-opacity:0.75000000;fill-rule:evenodd;stroke:#cfcfcf;stroke-width:1.7028222;stroke-linecap:butt;stroke-linejoin:miter;stroke-miterlimit:4.0000000;stroke-dasharray:1.7028220 1.7028220 ;stroke-dashoffset:0.0000000;stroke-opacity:1.0000000" />
      <path
         id="path5743"
         d="M 77.694574,2188.1381 L 271.50272,2250.3020"
         style="fill:none;fill-opacity:0.75000000;fill-rule:evenodd;stroke:#cfcfcf;stroke-width:1.7028222;stroke-linecap:butt;stroke-linejoin:miter;stroke-miterlimit:4.0000000;stroke-dasharray:1.7028220 1.7028220 ;stroke-dashoffset:0.0000000;stroke-opacity:1.0000000" />
    </g>
    <rect
       transform="matrix(0.696010,-0.718032,-0.952721,-0.303847,0.000000,0.000000)"
       ry="3.8354840"
       rx="5.8250465"
       y="-211.02315"
       x="-35.379341"
       height="64.103317"
       width="41.625130"
       id="rect5742"
       style="color:#000000;fill:#0000ff;fill-opacity:0.99665552;fill-rule:evenodd;stroke:#000000;stroke-width:0.99999704pt;stroke-linecap:butt;stroke-linejoin:miter;marker:none;marker-start:none;marker-mid:none;marker-end:none;stroke-miterlimit:4.0000000;stroke-dashoffset:0.0000000;stroke-opacity:1.0000000" />
    <flowRoot
       xml:space="preserve"
       id="flowRoot2609"
       style="font-size:6;font-style:normal;font-weight:normal;fill:#000000;fill-opacity:1;stroke:none;stroke-width:1px;stroke-linecap:butt;stroke-linejoin:miter;stroke-opacity:1;font-family:sans-serif"><flowRegion
         id="flowRegion2611"><rect
           id="rect2613"
           width="115"
           height="26.785715"
           x="78.571426"
           y="120.93361"
           style="font-size:6" /></flowRegion><flowPara
         id="flowPara2615">Snapping of rectangle - resize handles with Ctrl</flowPara></flowRoot>  </g>
</svg>
