<?xml version="1.0" encoding="UTF-8" standalone="no"?>
<!-- Created with Inkscape (http://www.inkscape.org/) -->
<svg
   xmlns:dc="http://purl.org/dc/elements/1.1/"
   xmlns:cc="http://web.resource.org/cc/"
   xmlns:rdf="http://www.w3.org/1999/02/22-rdf-syntax-ns#"
   xmlns:svg="http://www.w3.org/2000/svg"
   xmlns="http://www.w3.org/2000/svg"
   xmlns:sodipodi="http://sodipodi.sourceforge.net/DTD/sodipodi-0.dtd"
   xmlns:inkscape="http://www.inkscape.org/namespaces/inkscape"
   width="744.09448819"
   height="1052.3622047"
   id="svg15699"
   sodipodi:version="0.32"
   inkscape:version="0.45+devel"
   sodipodi:docbase="C:\Documents and Settings\ryan\Desktop\tut"
   sodipodi:docname="interpolate-f09.svg"
   inkscape:output_extension="org.inkscape.output.svg.inkscape">
  <defs
     id="defs15701" />
  <sodipodi:namedview
     id="base"
     pagecolor="#ffffff"
     bordercolor="#666666"
     borderopacity="1.0"
     gridtolerance="10000"
     guidetolerance="10"
     objecttolerance="10"
     inkscape:pageopacity="0.0"
     inkscape:pageshadow="2"
     inkscape:zoom="1.4"
     inkscape:cx="119.20277"
     inkscape:cy="1013.0684"
     inkscape:document-units="px"
     inkscape:current-layer="layer1"
     inkscape:window-width="744"
     inkscape:window-height="664"
     inkscape:window-x="504"
     inkscape:window-y="184" />
  <metadata
     id="metadata15704">
    <rdf:RDF>
      <cc:Work
         rdf:about="">
        <dc:format>image/svg+xml</dc:format>
        <dc:type
           rdf:resource="http://purl.org/dc/dcmitype/StillImage" />
      </cc:Work>
    </rdf:RDF>
  </metadata>
  <g
     inkscape:label="Layer 1"
     inkscape:groupmode="layer"
     id="layer1">
    <g
       id="g2939"
       transform="translate(4.5977783e-8,-4.346754e-3)">
      <path
         id="path2532"
         d="M 263.70539,9.3346256 C 263.70539,9.3346256 255.13177,23.052426 249.73243,31.691326 C 247.25091,35.661826 245.43989,38.559426 245.43989,38.559426 C 245.43989,38.559426 240.50053,30.656426 235.75893,23.069826 C 231.38241,16.067426 227.17438,9.3346256 227.17438,9.3346256 C 227.17438,9.3346256 231.58505,9.3346256 237.3412,9.3346256 C 248.15081,9.3346256 263.70539,9.3346256 263.70539,9.3346256 C 263.70539,9.3346256 263.70539,9.3346256 263.70539,9.3346256"
         style="fill:#00ccff;fill-opacity:1;stroke:#2e75ac;stroke-width:4.04815769;stroke-linejoin:round;stroke-miterlimit:4;stroke-opacity:1" />
      <g
         transform="matrix(0.5218716,0,0,0.5218716,-7.8861822,-205.5904)"
         id="g2606">
        <path
           d="M 453.78578,409.83503 C 456.55578,409.83503 444.70411,434.5957 435.83603,451.55463 C 431.76027,458.91527 428.58099,464.46429 428.21844,465.1575 C 427.38463,466.75181 417.60375,454.85486 407.88538,442.3944 C 398.98786,430.89333 390.5727,418.98583 389.67176,417.68457 C 389.11273,416.87715 396.03003,415.89567 405.48417,414.83503 C 423.2383,412.06503 451.01578,409.83503 453.78578,409.83503 C 453.78578,409.83503 453.78578,409.83503 453.78578,409.83503"
           id="path2534"
           style="fill:#00ccff;fill-opacity:1;stroke:#2e75ac;stroke-width:7.75699997;stroke-linejoin:round;stroke-miterlimit:4;stroke-opacity:1" />
        <path
           d="M 387.15312,407.83503 C 392.69312,407.83503 385.4184,431.07059 378.02833,448.4347 C 374.63186,455.54789 371.74355,461.09354 371.01846,462.47996 C 369.35083,465.66858 359.25377,457.01823 348.90279,446.63451 C 339.49394,437.05028 330.72697,426.13663 328.92508,423.53411 C 327.80703,421.91926 333.19,419.95632 341.06845,417.83503 C 355.86356,412.29503 381.61312,407.83503 387.15312,407.83503 C 387.15312,407.83503 387.15312,407.83503 387.15312,407.83503"
           id="path2536"
           style="fill:#00ccff;fill-opacity:1;stroke:#2e75ac;stroke-width:7.75699997;stroke-linejoin:round;stroke-miterlimit:4;stroke-opacity:1" />
        <path
           d="M 320.52047,405.83503 C 328.83047,405.83503 326.13269,427.54548 320.22063,445.31477 C 317.50346,452.18051 314.9061,457.72279 313.81847,459.80241 C 311.31703,464.58535 300.9038,459.18159 289.9202,450.87461 C 280.00002,443.20724 270.88124,433.28743 268.17841,429.38365 C 266.50132,426.96138 270.34997,424.01696 276.65273,420.83503 C 288.48882,412.52503 312.21047,405.83503 320.52047,405.83503 C 320.52047,405.83503 320.52047,405.83503 320.52047,405.83503"
           id="path2538"
           style="fill:#00ccff;fill-opacity:1;stroke:#2e75ac;stroke-width:7.75699997;stroke-linejoin:round;stroke-miterlimit:4;stroke-opacity:1" />
        <path
           d="M 253.88781,403.83503 C 264.96781,403.83503 266.84698,424.02037 262.41294,442.19483 C 260.37506,448.81312 258.06866,454.35203 256.61849,457.12487 C 253.28323,463.50212 242.55383,461.34495 230.93761,455.11472 C 220.50611,449.36419 211.03551,440.43823 207.43174,435.23319 C 205.19562,432.0035 207.50994,428.07761 212.23701,423.83503 C 221.11407,412.75503 242.80781,403.83503 253.88781,403.83503 C 253.88781,403.83503 253.88781,403.83503 253.88781,403.83503"
           id="path2540"
           style="fill:#00ccff;fill-opacity:1;stroke:#2e75ac;stroke-width:7.75699997;stroke-linejoin:round;stroke-miterlimit:4;stroke-opacity:1" />
        <path
           d="M 187.25516,401.83503 C 201.10516,401.83503 207.56127,420.49525 204.60524,439.0749 C 203.24666,445.44574 201.23122,450.98128 199.4185,454.44733 C 195.24943,462.41888 184.20386,463.50831 171.95503,459.35483 C 161.01219,455.52114 151.18978,447.58903 146.68507,441.08273 C 143.88992,437.04561 144.66991,432.13825 147.82129,426.83503 C 153.73933,412.98503 173.40516,401.83503 187.25516,401.83503 C 187.25516,401.83503 187.25516,401.83503 187.25516,401.83503"
           id="path2542"
           style="fill:#00ccff;fill-opacity:1;stroke:#2e75ac;stroke-width:7.75699997;stroke-linejoin:round;stroke-miterlimit:4;stroke-opacity:1" />
        <path
           d="M 120.6225,399.83503 C 137.2425,399.83503 148.27556,416.97014 146.79755,435.95496 C 146.11825,442.07835 144.39378,447.61053 142.21852,451.76979 C 137.21563,461.33565 125.85389,465.67168 112.97244,463.59493 C 101.51828,461.67809 91.344049,454.73984 85.938392,446.93227 C 82.584217,442.08773 81.829877,436.1989 83.405567,429.83503 C 86.364588,413.21503 104.0025,399.83503 120.6225,399.83503 C 120.6225,399.83503 120.6225,399.83503 120.6225,399.83503"
           id="path2544"
           style="fill:#00ccff;fill-opacity:1;stroke:#2e75ac;stroke-width:7.75699997;stroke-linejoin:round;stroke-miterlimit:4;stroke-opacity:1" />
      </g>
      <path
         id="path2546"
         d="M 20.289584,2.0284256 C 30.408673,2.0284256 38.555088,10.174826 38.555088,20.293926 C 38.555088,23.360426 37.806978,26.245726 36.482568,28.778126 C 33.436559,34.602226 27.342188,38.559426 20.289584,38.559426 C 14.045135,38.559426 8.5518948,35.457226 5.2606598,30.703526 C 3.2184698,27.753926 2.0240788,24.168526 2.0240788,20.293926 C 2.0240788,10.174826 10.170494,2.0284256 20.289584,2.0284256 C 20.289584,2.0284256 20.289584,2.0284256 20.289584,2.0284256"
         style="fill:#00ccff;fill-opacity:1;stroke:#2e75ac;stroke-width:4.04815769;stroke-linejoin:round;stroke-miterlimit:4;stroke-opacity:1" />
    </g>
  </g>
</svg>
