<?xml version="1.0" encoding="UTF-8" standalone="no"?>
<!-- Created with Inkscape (http://www.inkscape.org/) -->

<svg
   xmlns:dc="http://purl.org/dc/elements/1.1/"
   xmlns:cc="http://creativecommons.org/ns#"
   xmlns:rdf="http://www.w3.org/1999/02/22-rdf-syntax-ns#"
   xmlns:svg="http://www.w3.org/2000/svg"
   xmlns="http://www.w3.org/2000/svg"
   xmlns:xlink="http://www.w3.org/1999/xlink"
   xmlns:sodipodi="http://sodipodi.sourceforge.net/DTD/sodipodi-0.dtd"
   xmlns:inkscape="http://www.inkscape.org/namespaces/inkscape"
   sodipodi:docname="tracing-pixelart-f03.svg"
   inkscape:version="0.48.4 r9939"
   sodipodi:version="0.32"
   id="svg2544"
   height="1052.3622047"
   width="744.09448819"
   version="1.1">
  <defs
     id="defs3" />
  <sodipodi:namedview
     inkscape:window-y="27"
     inkscape:window-x="0"
     inkscape:window-height="709"
     inkscape:window-width="1366"
     inkscape:current-layer="layer1"
     inkscape:document-units="px"
     inkscape:cy="942.81588"
     inkscape:cx="235.15912"
     inkscape:zoom="1.4"
     inkscape:pageshadow="2"
     inkscape:pageopacity="0.0"
     borderopacity="1.0"
     bordercolor="#666666"
     pagecolor="#ffffff"
     id="base"
     showgrid="false"
     inkscape:window-maximized="1" />
  <metadata
     id="metadata4">
    <rdf:RDF>
      <cc:Work
         rdf:about="">
        <dc:format>image/svg+xml</dc:format>
        <dc:type
           rdf:resource="http://purl.org/dc/dcmitype/StillImage" />
      </cc:Work>
    </rdf:RDF>
  </metadata>
  <g
     id="layer1"
     inkscape:groupmode="layer"
     inkscape:label="Layer 1">
    <g
       transform="matrix(0.38212095,0,0,0.38212095,-160.24697,-202.99958)"
       id="layer1-42"
       inkscape:label="Camada 1">
      <image
         width="329"
         height="272"
         sodipodi:absref="tracing-pixelart/pixelart-dialog.png"
         xlink:href="pixelart-dialog.png"
         id="image3399"
         x="685.14288"
         y="540.79077" />
       <!-- this image is translatable, so pretend we'd have some translatable <text> in here -->
    </g>
  </g>
</svg>
