<?xml version="1.0" encoding="UTF-8" standalone="no"?>
<!-- Created with Inkscape (http://www.inkscape.org/) -->

<svg
   xmlns:dc="http://purl.org/dc/elements/1.1/"
   xmlns:cc="http://creativecommons.org/ns#"
   xmlns:rdf="http://www.w3.org/1999/02/22-rdf-syntax-ns#"
   xmlns:svg="http://www.w3.org/2000/svg"
   xmlns="http://www.w3.org/2000/svg"
   xmlns:xlink="http://www.w3.org/1999/xlink"
   xmlns:sodipodi="http://sodipodi.sourceforge.net/DTD/sodipodi-0.dtd"
   xmlns:inkscape="http://www.inkscape.org/namespaces/inkscape"
   sodipodi:docname="advanced-f11.svg"
   inkscape:version="0.47+devel r9300 custom"
   sodipodi:version="0.32"
   id="svg3907"
   height="1052.3622047"
   width="744.09448819"
   version="1.1">
  <defs
     id="defs3" />
  <sodipodi:namedview
     inkscape:window-y="253"
     inkscape:window-x="235"
     inkscape:window-height="513"
     inkscape:window-width="892"
     inkscape:current-layer="layer2"
     inkscape:document-units="px"
     inkscape:cy="989.94735"
     inkscape:cx="195.87219"
     inkscape:zoom="1.4"
     inkscape:pageshadow="2"
     inkscape:pageopacity="0.0"
     borderopacity="1.0"
     bordercolor="#666666"
     pagecolor="#ffffff"
     id="base"
     showgrid="false"
     inkscape:window-maximized="0" />
  <metadata
     id="metadata4">
    <rdf:RDF>
      <cc:Work
         rdf:about="">
        <dc:format>image/svg+xml</dc:format>
        <dc:type
           rdf:resource="http://purl.org/dc/dcmitype/StillImage" />
      </cc:Work>
    </rdf:RDF>
  </metadata>
  <g
     id="layer1"
     inkscape:groupmode="layer"
     inkscape:label="Layer 1" />
  <g
     inkscape:groupmode="layer"
     id="layer2"
     inkscape:label="offsets">
    <g
       id="g8809">
      <path
         inkscape:connector-curvature="0"
         style="fill:none;stroke:#ff0100;stroke-width:0.67500000999999998;stroke-linecap:butt;stroke-linejoin:miter;stroke-opacity:1"
         d="m 113.66892,73.852917 c -16.593444,-6.2126 -28.727341,-20.6241 -26.506358,-37.5836 1.074437,-8.2045 7.150966,-22.5219 11.082271,-29.1833003 2.317377,-3.9266997 0.06287,6.3871003 -0.15929,8.3469003 -0.911689,8.0423 -0.664621,17.6086 6.227927,23.3136 3.44173,2.8487 8.32158,3.3459 6.88652,-2.8132 -2.18193,-9.3644 10.90279,-16.8506 20.11048,-13.9346 7.10729,2.2509 12.72804,9.4197 10.96826,16.9486 -1.90673,8.1575 -11.60889,4.7505 -13.16014,-2.7849 -1.53409,-7.452 -10.92999,1.6922 -9.85543,7.2857 1.47573,7.6817 9.57174,9.5136 16.00972,10.2335 7.9762,0.892 18.6992,-2.9107 19.60127,-11.7376 0.7287,-7.1304 3.81339,-14.3436 11.81859,-15.2437 9.37831,-1.0545 19.57168,-0.8772 33.29708,-0.1784 -15.92588,0 -23.9844,10.5018 -28.31059,19.0116 -4.00187,7.8719 -13.27265,12.6442 -21.55869,13.805 -10.35699,1.4509 -24.13388,-0.7852 -30.18143,-0.7852 0,10.7174 9.08366,15.6834 16.616,15.4052 6.95456,-0.2568 11.56767,-8.6819 18.44532,-11.4902 8.51922,-3.4786 18.51358,-3.2501 26.13442,2.2007 6.03901,4.3193 12.03032,12.1167 8.6618,19.6431 -3.35625,7.4991 -13.9031,8.7109 -20.32443,3.8681 -5.82643,-4.3942 -12.20243,-9.1596 -20.20393,-9.1204 -7.06173,0.0345 -11.04337,2.4957 -12.62436,10.3187 -2.52884,-6.8607 -7.04977,-9.8139 -22.97501,-15.5256 z"
         id="path1987"
         sodipodi:nodetypes="csssssssssssscsscsssssscs" />
      <path
         sodipodi:type="inkscape:offset"
         inkscape:radius="5.5419211"
         inkscape:original="M 98.90625 6.25 C 98.74655 6.3399517 98.539672 6.6029125 98.25 7.09375 C 94.318695 13.75515 88.230687 28.07675 87.15625 36.28125 C 84.935267 53.24075 97.062806 67.63115 113.65625 73.84375 C 129.58149 79.55545 134.12741 82.5143 136.65625 89.375 C 138.23724 81.552 142.21952 79.097 149.28125 79.0625 C 157.28275 79.0233 163.64232 83.7933 169.46875 88.1875 C 175.89008 93.0303 186.425 91.8116 189.78125 84.3125 C 193.14977 76.7861 187.16401 68.97555 181.125 64.65625 C 173.50416 59.20545 163.51922 58.99015 155 62.46875 C 148.12235 65.27705 143.51706 73.71195 136.5625 73.96875 C 129.03016 74.24695 119.9375 69.2799 119.9375 58.5625 C 125.98505 58.5625 139.76801 60.79465 150.125 59.34375 C 158.41104 58.18295 167.68563 53.40315 171.6875 45.53125 C 176.01369 37.02145 184.07412 26.53125 200 26.53125 C 186.2746 25.83245 176.06581 25.633 166.6875 26.6875 C 158.6823 27.5876 155.6037 34.8071 154.875 41.9375 C 153.97293 50.7644 143.25745 54.5795 135.28125 53.6875 C 128.84327 52.9676 120.72573 51.1192 119.25 43.4375 C 118.17544 37.844 127.59091 28.70425 129.125 36.15625 C 130.67625 43.69165 140.37452 47.095 142.28125 38.9375 C 144.04103 31.4086 138.41979 24.2509 131.3125 22 C 122.10481 19.084 109.00557 26.5731 111.1875 35.9375 C 112.62256 42.0966 107.75423 41.5987 104.3125 38.75 C 97.419952 33.045 97.182061 23.4798 98.09375 15.4375 C 98.28814 13.722675 100.02415 5.6203379 98.90625 6.25 z "
         style="fill:none;stroke:#000000;stroke-width:0.67500000999999998;stroke-opacity:1"
         id="path1988"
         d="m 98.5625,0.78125 c -0.987545,0.0805022 -1.853359,0.3311837 -2.375,0.625 -2.400519,1.3521024 -2.282412,2.1356437 -2.71875,2.875 -4.425567,7.498902 -10.4959,21.227571 -11.8125,31.28125 -2.610668,19.935145 11.667682,36.581714 30.0625,43.46875 a 5.5424753,5.5424753 0 0 0 0.0625,0.03125 c 7.8341,2.809757 12.64783,4.930098 15.3125,6.71875 2.66467,1.788652 3.39386,2.838189 4.375,5.5 a 5.5424753,5.5424753 0 0 0 10.625,-0.8125 c 0.63382,-3.136266 1.44206,-4.208163 2.1875,-4.78125 0.74544,-0.573087 2.13749,-1.079613 5.03125,-1.09375 5.78469,-0.02834 10.99455,3.643448 16.8125,8.03125 4.55235,3.433263 10.22862,4.599511 15.5625,3.71875 5.33388,-0.880761 10.64063,-4.160432 13.15625,-9.78125 2.47628,-5.532846 1.40929,-11.414062 -0.96875,-15.875 -2.37804,-4.460938 -5.93081,-7.956095 -9.53125,-10.53125 -3.94346,-2.820555 -8.33101,-4.438892 -12.84375,-5.125 2.01481,-2.012105 3.76801,-4.33073 5.125,-7 C 180.52477,40.360241 186.50772,32.0625 200,32.0625 A 5.5424753,5.5424753 0 0 0 200.28125,21 c -13.81129,-0.703173 -24.31956,-0.925567 -34.21875,0.1875 -5.55911,0.625063 -10.04377,3.823874 -12.625,7.71875 -2.58123,3.894876 -3.63713,8.306487 -4.0625,12.46875 -0.23361,2.285911 -1.5445,3.798955 -4.1875,5.15625 -0.5351,0.274795 -1.23061,0.381464 -1.84375,0.59375 2.17301,-1.645861 3.69709,-4.170903 4.34375,-6.9375 C 150.21977,29.353636 142.52928,19.736703 133,16.71875 c -6.6268,-2.098653 -13.58287,-0.513706 -19.03125,3 -4.03359,2.601298 -7.50124,6.889392 -8.34375,11.9375 -2.41497,-4.018422 -2.70289,-9.668981 -2.03125,-15.59375 -7.5e-4,0.0066 0.52695,-2.92 0.875,-5.28125 0.17402,-1.180625 0.32827,-2.2729586 0.34375,-3.53125 0.008,-0.6291457 0.15286,-1.1622102 -0.40625,-2.71875 C 104.12669,3.7529801 103.56943,2.3187191 101.625,1.3125 100.65279,0.80939043 99.550045,0.70074776 98.5625,0.78125 z m 26.53125,40.5625 c 1.20963,2.383394 3.03131,4.287121 5.15625,5.65625 -0.83131,-0.249055 -1.73097,-0.458595 -2.375,-0.78125 -1.98554,-0.994745 -2.78928,-1.739604 -3.1875,-3.8125 0.067,0.348734 0.008,-0.257759 0.40625,-1.0625 z m 2.59375,23.3125 c 1.97418,0.160771 3.0414,0.217214 5.34375,0.375 2.76128,0.189237 5.69993,0.331197 8.65625,0.34375 -2.38765,1.994113 -4.1511,3.018461 -5.34375,3.0625 -2.4683,0.09116 -5.42765,-0.78931 -7.46875,-2.40625 -0.48622,-0.385177 -0.78896,-0.920906 -1.1875,-1.375 z"
         xlink:href="#path1987"
         inkscape:href="#path1987" />
      <path
         sodipodi:type="inkscape:offset"
         inkscape:radius="-1.1492475"
         inkscape:original="M 98.90625 6.25 C 98.74655 6.3399517 98.539672 6.6029125 98.25 7.09375 C 94.318695 13.75515 88.230687 28.07675 87.15625 36.28125 C 84.935267 53.24075 97.062806 67.63115 113.65625 73.84375 C 129.58149 79.55545 134.12741 82.5143 136.65625 89.375 C 138.23724 81.552 142.21952 79.097 149.28125 79.0625 C 157.28275 79.0233 163.64232 83.7933 169.46875 88.1875 C 175.89008 93.0303 186.425 91.8116 189.78125 84.3125 C 193.14977 76.7861 187.16401 68.97555 181.125 64.65625 C 173.50416 59.20545 163.51922 58.99015 155 62.46875 C 148.12235 65.27705 143.51706 73.71195 136.5625 73.96875 C 129.03016 74.24695 119.9375 69.2799 119.9375 58.5625 C 125.98505 58.5625 139.76801 60.79465 150.125 59.34375 C 158.41104 58.18295 167.68563 53.40315 171.6875 45.53125 C 176.01369 37.02145 184.07412 26.53125 200 26.53125 C 186.2746 25.83245 176.06581 25.633 166.6875 26.6875 C 158.6823 27.5876 155.6037 34.8071 154.875 41.9375 C 153.97293 50.7644 143.25745 54.5795 135.28125 53.6875 C 128.84327 52.9676 120.72573 51.1192 119.25 43.4375 C 118.17544 37.844 127.59091 28.70425 129.125 36.15625 C 130.67625 43.69165 140.37452 47.095 142.28125 38.9375 C 144.04103 31.4086 138.41979 24.2509 131.3125 22 C 122.10481 19.084 109.00557 26.5731 111.1875 35.9375 C 112.62256 42.0966 107.75423 41.5987 104.3125 38.75 C 97.419952 33.045 97.182061 23.4798 98.09375 15.4375 C 98.28814 13.722675 100.02415 5.6203379 98.90625 6.25 z "
         style="fill-rule:evenodd;stroke-width:0.42500000999999998"
         id="path1989"
         d="m 97.71875,14.65625 c -3.752505,7.207351 -8.537155,18.906129 -9.4375,25.78125 -2.138448,16.329261 9.550494,30.232018 25.75,36.3125 0.0131,0.0049 0.0182,0.02636 0.0312,0.03125 7.96373,2.857446 13.15208,5.022409 16.75,7.4375 2.68958,1.805371 4.30934,3.929444 5.59375,6.3125 0.88173,-2.615129 2.04757,-4.799394 3.8125,-6.15625 2.35181,-1.80805 5.39952,-2.450855 9.0625,-2.46875 8.46121,-0.04145 15.04681,4.979473 20.875,9.375 2.93244,2.211566 6.88806,3.054853 10.4375,2.46875 3.54944,-0.586103 6.62055,-2.544751 8.125,-5.90625 1.52002,-3.396222 0.96665,-6.810995 -0.75,-10.03125 -1.71665,-3.220255 -4.60097,-6.145265 -7.5,-8.21875 -7.24614,-5.182798 -16.81834,-5.416025 -25.03125,-2.0625 -3.14913,1.285863 -5.957,3.975564 -8.875,6.5 -2.918,2.524436 -6.03714,4.948574 -9.96875,5.09375 -4.03531,0.149041 -8.41692,-1.104288 -11.875,-3.84375 -3.45808,-2.739462 -5.9375,-7.035042 -5.9375,-12.71875 a 1.1493625,1.1493625 0 0 1 1.15625,-1.15625 c 3.16517,0 8.09641,0.562896 13.5625,0.9375 5.46609,0.374604 11.43981,0.579499 16.46875,-0.125 7.97346,-1.117011 16.92553,-5.818743 20.6875,-13.21875 3.28422,-6.460192 8.83159,-14.161867 18.21875,-17.6875 -8.21262,-0.22588 -15.60681,-0.19463 -22.0625,0.53125 -3.67982,0.413757 -6.10039,2.197809 -7.8125,4.78125 -1.71211,2.583441 -2.61705,5.996115 -2.96875,9.4375 -0.49612,4.854645 -3.75502,8.338606 -7.78125,10.40625 -4.02623,2.067644 -8.86931,2.84743 -13.09375,2.375 -3.27393,-0.366094 -7.04842,-1.036623 -10.28125,-2.65625 -3.23283,-1.619627 -5.9417,-4.323773 -6.75,-8.53125 -0.33824,-1.760679 0.13908,-3.604473 0.96875,-5.28125 0.82967,-1.676777 2.03549,-3.203493 3.375,-4.34375 1.33951,-1.140257 2.83741,-1.965886 4.4375,-1.8125 0.80004,0.07669 1.57633,0.472737 2.15625,1.125 0.57992,0.652263 0.96765,1.525828 1.1875,2.59375 0.68714,3.33789 3.24425,5.730753 5.625,6.375 1.19037,0.322124 2.2898,0.218193 3.1875,-0.3125 0.8977,-0.530693 1.67024,-1.500626 2.09375,-3.3125 1.59959,-6.843538 -3.58247,-13.501916 -10.1875,-15.59375 -4.18434,-1.325146 -9.49059,-0.255089 -13.375,2.25 -3.88441,2.505089 -6.24151,6.222507 -5.28125,10.34375 0.39058,1.6763 0.40714,3.023355 -0.0312,4.125 -0.43839,1.101645 -1.42766,1.826052 -2.46875,2.03125 -2.08218,0.410396 -4.31818,-0.645661 -6.21875,-2.21875 -7.368613,-6.099041 -7.581948,-16.146626 -6.65625,-24.3125 0.09953,-0.877985 0.485143,-2.830711 0.78125,-4.65625 z"
         transform="matrix(0.39324,0,0,0.39324,199.7709,1.52383)"
         xlink:href="#path1987"
         inkscape:href="#path1987" />
    </g>
  </g>
</svg>
